-------------------------------------------------------------------------------
Test set: org.classified.lifecycle.poc.service.AdvertHistoryServiceTest
-------------------------------------------------------------------------------
Tests run: 2, Failures: 0, Errors: 0, Skipped: 0, Time elapsed: 0.014 s - in org.classified.lifecycle.poc.service.AdvertHistoryServiceTest
