-------------------------------------------------------------------------------
Test set: org.classified.lifecycle.poc.controller.integration.AdvertHistoryControllerTest
-------------------------------------------------------------------------------
Tests run: 1, Failures: 0, Errors: 0, Skipped: 0, Time elapsed: 4.068 s - in org.classified.lifecycle.poc.controller.integration.AdvertHistoryControllerTest
