-------------------------------------------------------------------------------
Test set: org.classified.lifecycle.poc.service.DashboardServiceTest
-------------------------------------------------------------------------------
Tests run: 1, Failures: 0, Errors: 0, Skipped: 0, Time elapsed: 0.001 s - in org.classified.lifecycle.poc.service.DashboardServiceTest
