org\classified\lifecycle\poc\repository\AdvertHistoryRepository.class
org\classified\lifecycle\poc\dto\AdvertCreateDTO$AdvertCreateDTOBuilder.class
org\classified\lifecycle\poc\configuration\BadwordConfiguration.class
org\classified\lifecycle\poc\service\AdvertHistoryService.class
org\classified\lifecycle\poc\mapper\AdvertCreateMapperImpl.class
org\classified\lifecycle\poc\repository\AdvertRepository.class
org\classified\lifecycle\poc\annotations\TitleFirstCharacter.class
org\classified\lifecycle\poc\enums\State$2.class
org\classified\lifecycle\poc\entity\Advert.class
org\classified\lifecycle\poc\annotations\BadWordsValidators.class
org\classified\lifecycle\poc\entity\AdvertHistory$AdvertHistoryBuilder.class
org\classified\lifecycle\poc\service\impl\AdvertServiceImpl.class
org\classified\lifecycle\poc\dto\AdvertChangeStateDTO.class
org\classified\lifecycle\poc\configuration\CacheLogger.class
org\classified\lifecycle\poc\entity\Advert$AdvertBuilder.class
org\classified\lifecycle\poc\base\BaseController.class
org\classified\lifecycle\poc\configuration\CacheScheduler.class
org\classified\lifecycle\poc\mapper\AdvertCreateMapper.class
org\classified\lifecycle\poc\enums\Category.class
org\classified\lifecycle\poc\dto\BaseResponse.class
org\classified\lifecycle\poc\mapper\AdvertHistoryMapper.class
org\classified\lifecycle\poc\enums\State$1.class
org\classified\lifecycle\poc\exceptions\ExceptionsHandler.class
org\classified\lifecycle\poc\annotations\TitleFirstCharacterValidators.class
org\classified\lifecycle\poc\dto\AdvertHistoryDTO$AdvertHistoryDTOBuilder.class
org\classified\lifecycle\poc\mapper\AdvertListMapperImpl.class
org\classified\lifecycle\poc\configuration\SwaggerConfiguration.class
org\classified\lifecycle\poc\annotations\BadWords.class
org\classified\lifecycle\poc\dto\AdvertCreateDTO.class
org\classified\lifecycle\poc\controller\DashboardController.class
org\classified\lifecycle\poc\dto\AdvertHistoryDTO.class
org\classified\lifecycle\poc\dto\BaseResponse$BaseResponseBuilder.class
org\classified\lifecycle\poc\controller\AdvertController.class
org\classified\lifecycle\poc\entity\AdvertHistory.class
org\classified\lifecycle\poc\constant\AdvertConstant.class
org\classified\lifecycle\poc\dto\AdvertDTO$AdvertDTOBuilder.class
org\classified\lifecycle\poc\exceptions\AdvertException.class
org\classified\lifecycle\poc\service\impl\DashboardServiceImpl.class
org\classified\lifecycle\poc\configuration\CustomRequestInterceptor.class
org\classified\lifecycle\poc\configuration\InterceptorAppConfig.class
org\classified\lifecycle\poc\dto\AdvertChangeStateDTO$AdvertChangeStateDTOBuilder.class
org\classified\lifecycle\poc\mapper\AdvertListMapper.class
org\classified\lifecycle\poc\enums\State.class
org\classified\lifecycle\poc\dto\GroupByStateDTO.class
org\classified\lifecycle\poc\mapper\AdvertHistoryMapperImpl.class
org\classified\lifecycle\poc\service\AdvertService.class
org\classified\lifecycle\poc\controller\AdvertHistoryController.class
org\classified\lifecycle\poc\dto\AdvertDTO.class
org\classified\lifecycle\poc\Application.class
org\classified\lifecycle\poc\enums\State$3.class
org\classified\lifecycle\poc\service\DashboardService.class
org\classified\lifecycle\poc\service\impl\AdvertHistoryServiceImpl.class
