C:\Users\Doğan\Desktop\projects\classified-lifecycle-poc\src\test\java\org\classified\lifecycle\poc\controller\integration\AdvertHistoryControllerTest.java
C:\Users\Doğan\Desktop\projects\classified-lifecycle-poc\src\test\java\org\classified\lifecycle\poc\dto\ValidationsTest.java
C:\Users\Doğan\Desktop\projects\classified-lifecycle-poc\src\test\java\org\classified\lifecycle\poc\exception\ExceptionsHandlerTest.java
C:\Users\Doğan\Desktop\projects\classified-lifecycle-poc\src\test\java\org\classified\lifecycle\poc\BaseIntegrationTest.java
C:\Users\Doğan\Desktop\projects\classified-lifecycle-poc\src\test\java\org\classified\lifecycle\poc\mapper\AdvertListMapperTest.java
C:\Users\Doğan\Desktop\projects\classified-lifecycle-poc\src\test\java\org\classified\lifecycle\poc\service\AdvertServiceTest.java
C:\Users\Doğan\Desktop\projects\classified-lifecycle-poc\src\test\java\org\classified\lifecycle\poc\service\AdvertHistoryServiceTest.java
C:\Users\Doğan\Desktop\projects\classified-lifecycle-poc\src\test\java\org\classified\lifecycle\poc\controller\DashboardControllerTest.java
C:\Users\Doğan\Desktop\projects\classified-lifecycle-poc\src\test\java\org\classified\lifecycle\poc\controller\AdvertControllerTest.java
C:\Users\Doğan\Desktop\projects\classified-lifecycle-poc\src\test\java\org\classified\lifecycle\poc\ModelDummyDataCreated.java
C:\Users\Doğan\Desktop\projects\classified-lifecycle-poc\src\test\java\org\classified\lifecycle\poc\BaseUnitTest.java
C:\Users\Doğan\Desktop\projects\classified-lifecycle-poc\src\test\java\org\classified\lifecycle\poc\service\DashboardServiceTest.java
C:\Users\Doğan\Desktop\projects\classified-lifecycle-poc\src\test\java\org\classified\lifecycle\poc\annotation\BadWordsValidatorsTest.java
C:\Users\Doğan\Desktop\projects\classified-lifecycle-poc\src\test\java\org\classified\lifecycle\poc\base\BaseControllerTest.java
C:\Users\Doğan\Desktop\projects\classified-lifecycle-poc\src\test\java\org\classified\lifecycle\poc\controller\integration\DashboardControllerTest.java
C:\Users\Doğan\Desktop\projects\classified-lifecycle-poc\src\test\java\org\classified\lifecycle\poc\mapper\AdvertCreateMapperTest.java
C:\Users\Doğan\Desktop\projects\classified-lifecycle-poc\src\test\java\org\classified\lifecycle\poc\mapper\AdvertHistoryMapperTest.java
C:\Users\Doğan\Desktop\projects\classified-lifecycle-poc\src\test\java\org\classified\lifecycle\poc\controller\AdvertHistoryControllerTest.java
C:\Users\Doğan\Desktop\projects\classified-lifecycle-poc\src\test\java\org\classified\lifecycle\poc\controller\integration\AdvertControllerTest.java
C:\Users\Doğan\Desktop\projects\classified-lifecycle-poc\src\test\java\org\classified\lifecycle\poc\configuration\CustomRequestInterceptorTest.java
C:\Users\Doğan\Desktop\projects\classified-lifecycle-poc\src\test\java\org\classified\lifecycle\poc\configuration\BadwordConfigurationTest.java
C:\Users\Doğan\Desktop\projects\classified-lifecycle-poc\src\test\java\org\classified\lifecycle\poc\annotation\TitleFirstCharacterValidatorsTest.java
C:\Users\Doğan\Desktop\projects\classified-lifecycle-poc\src\test\java\org\classified\lifecycle\poc\configuration\InterceptorAppConfigTest.java
